05/01/2002	Pitono	Hassan
06/01/2002	Hassan	Ali Atwa
06/01/2002	Pitono	Hassan
07/01/2002	Faiz	Mustafa
08/01/2002	Mohammed	Hassan
09/01/2002	Patek	Arr(Sydney)
10/01/2002	Antonio	Hassan
11/01/2002	Mustafa	Mohammed
13/01/2002	Hassan	Martinez
15/01/2002	Martinez	Faiz
15/01/2002	Ali Atwa	Pitono
15/01/2002	Hassan	Mustafa
16/01/2002	Hassan	Faiz
17/01/2002	Ali Atwa	Martinez
18/01/2002	Ali Atwa	Faiz
18/01/2002	Mustafa	Mohammed
19/01/2002	Ali Atwa	Hassan
20/01/2002	Mohammed	Hassan
21/01/2002	Pitono	Mohammed
21/01/2002	Ali Atwa	Pitono
22/01/2002	Faiz	Mustafa
22/01/2002	Mohammed	Antonio
23/01/2002	Hassan	Faiz
24/01/2002	Hassan	Martinez
27/01/2002	Patek	Arr(Sydney)
02/02/2002	Antonio	Ali Atwa
02/02/2002	Hassan	Antonio
04/02/2002	Martinez	Mohammed
04/02/2002	Antonio	Hassan
06/02/2002	Antonio	Faiz
06/02/2002	Faiz	Mohammed
06/02/2002	Faiz	Mustafa
07/02/2002	Ali Atwa	Pitono
08/02/2002	Pitono	Mustafa
08/02/2002	Ali Atwa	Pitono
09/02/2002	Patek	Arr(Sydney)
10/02/2002	Hassan	Faiz
11/02/2002	Hassan	Pitono
12/02/2002	Mohammed	Hassan
13/02/2002	Antonio	Martinez
13/02/2002	Mustafa	Martinez
15/02/2002	Martinez	Hassan
18/02/2002	Martinez	Faiz
18/02/2002	Mohammed	Hassan
19/02/2002	Faiz	Martinez
19/02/2002	Ali Atwa	Antonio
20/02/2002	Hassan	Martinez
21/02/2002	Pitono	Faiz
25/02/2002	Hassan	Antonio
01/03/2002	Ali Atwa	Mohammed
04/03/2002	Antonio	Martinez
05/03/2002	Mohammed	Ali Atwa
09/03/2002	Martinez	Faiz
09/03/2002	Martinez	Antonio
11/03/2002	Ali Atwa	Pitono
11/03/2002	Mohammed	Ali Atwa
13/03/2002	Faiz	Martinez
14/03/2002	Ali Atwa	Mustafa
16/03/2002	Hassan	Faiz
17/03/2002	Antonio	Mustafa
17/03/2002	Mohammed	Hassan
21/03/2002	Hassan	Martinez
21/03/2002	Antonio	Ali Atwa
21/03/2002	Faiz	Ali Atwa
22/03/2002	Faiz	Mohammed
23/03/2002	Faiz	Hassan
23/03/2002	Hassan	Ali Atwa
25/03/2002	Hassan	Hassan
25/03/2002	Mustafa	Hassan
26/03/2002	Ali Atwa	Antonio
29/03/2002	Ali Atwa	Pitono
01/04/2002	Mustafa	Pitono
01/04/2002	Hassan	Faiz
05/04/2002	Mohammed	Hassan
08/04/2002	Martinez	Antonio
10/04/2002	Mohammed	Ali Atwa
11/04/2002	Hassan	Martinez
13/04/2002	Pitono	Faiz
15/04/2002	Mustafa	Antonio
15/04/2002	Antonio	Pitono
22/04/2002	Mustafa	Ali Atwa
22/04/2002	Faiz	Mustafa
22/04/2002	Mustafa	Hassan
26/04/2002	Faiz	Antonio
26/04/2002	Patek	Arr(Sydney)
01/05/2002	Faiz	Ali Atwa
04/05/2002	Hassan	Faiz
05/05/2002	Hassan	Faiz
05/05/2002	Faiz	Mohammed
06/05/2002	Faiz	Antonio
12/05/2002	Mohammed	Faiz
14/05/2002	Faiz	Hassan
15/05/2002	Faiz	Martinez
17/05/2002	Antonio	Mustafa
22/05/2002	Hassan	Hassan
23/05/2002	Martinez	Mustafa
25/05/2002	Faiz	Martinez
27/05/2002	Pitono	Hassan
27/05/2002	Pitono	Antonio
01/06/2002	Martinez	Hassan
03/06/2002	Mustafa	Pitono
03/06/2002	Antonio	Faiz
07/06/2002	Pitono	Mustafa
09/06/2002	Pitono	Martinez
09/06/2002	Mustafa	Faiz
09/06/2002	Hassan	Pitono
09/06/2002	Hassan	Pitono
10/06/2002	Ali Atwa	Pitono
11/06/2002	Hassan	Faiz
11/06/2002	Mustafa	Martinez
12/06/2002	Faiz	Mustafa
14/06/2002	Mohammed	Hassan
16/06/2002	Martinez	Antonio
17/06/2002	Patek	Arr(Sydney)
20/06/2002	Hassan	Martinez
25/06/2002	Mohammed	Mustafa
27/06/2002	Hassan	Pitono
02/07/2002	Hassan	Mustafa
03/07/2002	Pitono	Ali Atwa
03/07/2002	Ali Atwa	Mustafa
09/07/2002	Hassan	Martinez
12/07/2002	Mohammed	Hassan
15/07/2002	Pitono	Martinez
21/07/2002	Mustafa	Faiz
24/07/2002	Hassan	Pitono
24/07/2002	Mustafa	Mohammed
26/07/2002	Faiz	Ali Atwa
28/07/2002	Pitono	Martinez
02/08/2002	Martinez	Ali Atwa
04/08/2002	Pitono	Mustafa
07/08/2002	Pitono	Hassan
13/08/2002	Martinez	Pitono
14/08/2002	Mohammed	Antonio
16/08/2002	Hassan	Ali Atwa
16/08/2002	Pitono	Faiz
17/08/2002	Mohammed	Pitono
19/08/2002	Hassan	Faiz
19/08/2002	Martinez	Mustafa
20/08/2002	Mustafa	Mohammed
22/08/2002	Hassan	Antonio
23/08/2002	Faiz	Antonio
24/08/2002	Hassan	Mustafa
25/08/2002	Antonio	Mustafa
25/08/2002	Mustafa	Martinez
26/08/2002	Faiz	Hassan
26/08/2002	Hassan	Pitono
27/08/2002	Hassan	Ali Atwa
01/09/2002	Faiz	Mustafa
02/09/2002	Mustafa	Hassan
02/09/2002	Ali Atwa	Martinez
03/09/2002	Mohammed	Pitono
04/09/2002	Patek	Arr(Sydney)
05/09/2002	Hassan	Ali Atwa
05/09/2002	Antonio	Mustafa
06/09/2002	Faiz	Ali Atwa
11/09/2002	Mohammed	Hassan
13/09/2002	Pitono	Hassan
14/09/2002	Mustafa	Hassan
15/09/2002	Faiz	Pitono
15/09/2002	Hassan	Mohammed
15/09/2002	Ali Atwa	Pitono
18/09/2002	Hassan	Martinez
22/09/2002	Hassan	Faiz
24/09/2002	Pitono	Mustafa
24/09/2002	Faiz	Hassan
25/09/2002	Hassan	Faiz
25/09/2002	Hassan	Antonio
26/09/2002	Mustafa	Hassan
29/09/2002	Hassan	Mustafa
29/09/2002	Martinez	Hassan
04/10/2002	Martinez	Hassan
05/10/2002	Hassan	Hassan
07/10/2002	Faiz	Mohammed
07/10/2002	Martinez	Pitono
08/10/2002	Faiz	Antonio
08/10/2002	Antonio	Mohammed
15/10/2002	Antonio	Faiz
15/10/2002	Faiz	Martinez
17/10/2002	Faiz	Ali Atwa
19/10/2002	Mustafa	Martinez
20/10/2002	Mustafa	Martinez
24/10/2002	Mohammed	Hassan
24/10/2002	Hassan	Mohammed
27/10/2002	Martinez	Mustafa
29/10/2002	Mustafa	Hassan
01/11/2002	Mohammed	Antonio
02/11/2002	Ali Atwa	Hassan
13/11/2002	Hassan	Pitono
16/11/2002	Hassan	Ali Atwa
17/11/2002	Martinez	Ali Atwa
17/11/2002	Ali Atwa	Pitono
18/11/2002	Faiz	Martinez
20/11/2002	Hassan	Faiz
21/11/2002	Mohammed	Hassan
21/11/2002	Hassan	Faiz
22/11/2002	Hassan	Hassan
25/11/2002	Ali Atwa	Faiz
25/11/2002	Hassan	Martinez
26/11/2002	Pitono	Mustafa
27/11/2002	Mustafa	Ali Atwa
01/12/2002	Mustafa	Antonio
01/12/2002	Faiz	Martinez
03/12/2002	Antonio	Hassan
10/12/2002	Faiz	Mohammed
10/12/2002	Faiz	Hassan
16/12/2002	Faiz	Hassan
23/12/2002	Mohammed	Martinez
26/12/2002	Faiz	Hassan
27/12/2002	Martinez	Antonio
